{
    "timestamp": "استنفار_2025-05-25_08-24-53_676747",
    "url": "http://localhost:8000/api/items/?fields=id%2Cname%2Cprice1%2Cprice2%2Cprice3%2Cprice4%2Chas_img%2Cimages%2Cstock%2C&limit=12&offset=96&s=+%40%40",
    "headers": {
        "Content-Length": "",
        "Content-Type": "text/plain",
        "Host": "localhost:8000",
        "Connection": "keep-alive",
        "Sec-Ch-Ua-Platform": "\"Linux\"",
        "User-Agent": "Mozilla/5.0 (X11; Linux x86_64) AppleWebKit/537.36 (KHTML, like Gecko) Chrome/136.0.0.0 Safari/537.36",
        "Accept": "application/json, text/plain, */*",
        "Sec-Ch-Ua": "\"Chromium\";v=\"136\", \"Google Chrome\";v=\"136\", \"Not.A/Brand\";v=\"99\"",
        "Sec-Ch-Ua-Mobile": "?0",
        "Origin": "http://localhost:5173",
        "Sec-Fetch-Site": "same-site",
        "Sec-Fetch-Mode": "cors",
        "Sec-Fetch-Dest": "empty",
        "Referer": "http://localhost:5173/",
        "Accept-Encoding": "gzip, deflate, br, zstd",
        "Accept-Language": "en-US,en;q=0.9,ar-EG;q=0.8,ar;q=0.7"
    },
    "request_body": null,
    "response_status": 200,
    "response_body": {
        "count": 121,
        "next": "http://localhost:8000/api/items/?fields=id%2Cname%2Cprice1%2Cprice2%2Cprice3%2Cprice4%2Chas_img%2Cimages%2Cstock%2C&limit=12&offset=108&s=+%40%40",
        "previous": "http://localhost:8000/api/items/?fields=id%2Cname%2Cprice1%2Cprice2%2Cprice3%2Cprice4%2Chas_img%2Cimages%2Cstock%2C&limit=12&offset=84&s=+%40%40",
        "results": [
            {
                "id": 1000109,
                "images": [],
                "stock": [
                    {
                        "id": 110,
                        "repository_name": "الرئيسي",
                        "quantity": "1.00",
                        "item": 1000109,
                        "repository": 10000
                    }
                ],
                "name": "SIGNAL HARNESS GMAX PRO (wire cables) ##USA @@14",
                "price1": "0.00",
                "price2": "0.00",
                "price3": "0.00",
                "price4": "0.00"
            },
            {
                "id": 1000112,
                "images": [],
                "stock": [
                    {
                        "id": 112,
                        "repository_name": "الرئيسي",
                        "quantity": "200.00",
                        "item": 1000112,
                        "repository": 10000
                    }
                ],
                "name": "Skin protectant 18 ( color ) ##Egypt @@22",
                "price1": "0.00",
                "price2": "0.00",
                "price3": "0.00",
                "price4": "0.00"
            },
            {
                "id": 1000111,
                "images": [],
                "stock": [
                    {
                        "id": 113,
                        "repository_name": "الرئيسي",
                        "quantity": "2900.00",
                        "item": 1000111,
                        "repository": 10000
                    }
                ],
                "name": "Skin protectant 18 (qty is approximate) ##Egypt @@21",
                "price1": "0.00",
                "price2": "0.00",
                "price3": "0.00",
                "price4": "0.00"
            },
            {
                "id": 1000115,
                "images": [],
                "stock": [
                    {
                        "id": 116,
                        "repository_name": "الرئيسي",
                        "quantity": "6.00",
                        "item": 1000115,
                        "repository": 10000
                    }
                ],
                "name": "SLIDER TUBE PRO ##USA @@1 4",
                "price1": "0.00",
                "price2": "0.00",
                "price3": "0.00",
                "price4": "0.00"
            },
            {
                "id": 1000142,
                "images": [],
                "stock": [
                    {
                        "id": 143,
                        "repository_name": "الرئيسي",
                        "quantity": "1.00",
                        "item": 1000142,
                        "repository": 10000
                    }
                ],
                "name": "synsour laser HD (used) ##USA @@11",
                "price1": "0.00",
                "price2": "0.00",
                "price3": "0.00",
                "price4": "0.00"
            },
            {
                "id": 1000116,
                "images": [],
                "stock": [
                    {
                        "id": 117,
                        "repository_name": "الرئيسي",
                        "quantity": "3.50",
                        "item": 1000116,
                        "repository": 10000
                    }
                ],
                "name": "Tesue paper ##USA @@26",
                "price1": "0.00",
                "price2": "0.00",
                "price3": "0.00",
                "price4": "0.00"
            },
            {
                "id": 1000117,
                "images": [],
                "stock": [
                    {
                        "id": 118,
                        "repository_name": "الرئيسي",
                        "quantity": "2.00",
                        "item": 1000117,
                        "repository": 10000
                    }
                ],
                "name": "Thermal SW 55 ##China @@15",
                "price1": "0.00",
                "price2": "0.00",
                "price3": "0.00",
                "price4": "0.00"
            },
            {
                "id": 1000118,
                "images": [],
                "stock": [
                    {
                        "id": 119,
                        "repository_name": "الرئيسي",
                        "quantity": "1.00",
                        "item": 1000118,
                        "repository": 10000
                    }
                ],
                "name": "Thermal SW 65 ##China @@15",
                "price1": "0.00",
                "price2": "0.00",
                "price3": "0.00",
                "price4": "0.00"
            },
            {
                "id": 1000119,
                "images": [],
                "stock": [
                    {
                        "id": 120,
                        "repository_name": "الرئيسي",
                        "quantity": "3.00",
                        "item": 1000119,
                        "repository": 10000
                    }
                ],
                "name": "Thermal SW 75 ##China @@15",
                "price1": "0.00",
                "price2": "0.00",
                "price3": "0.00",
                "price4": "0.00"
            },
            {
                "id": 1000121,
                "images": [],
                "stock": [
                    {
                        "id": 122,
                        "repository_name": "الرئيسي",
                        "quantity": "5.00",
                        "item": 1000121,
                        "repository": 10000
                    }
                ],
                "name": "TRIGGER BUTTON PRO plastic ##USA @@15",
                "price1": "0.00",
                "price2": "0.00",
                "price3": "0.00",
                "price4": "0.00"
            },
            {
                "id": 1000131,
                "images": [],
                "stock": [
                    {
                        "id": 132,
                        "repository_name": "الرئيسي",
                        "quantity": "6.00",
                        "item": 1000131,
                        "repository": 10000
                    }
                ],
                "name": "Triple pore (used) ## @@24",
                "price1": "0.00",
                "price2": "0.00",
                "price3": "0.00",
                "price4": "0.00"
            },
            {
                "id": 1000123,
                "images": [],
                "stock": [
                    {
                        "id": 124,
                        "repository_name": "الرئيسي",
                        "quantity": "1.00",
                        "item": 1000123,
                        "repository": 10000
                    }
                ],
                "name": "water level Pro ## @@27",
                "price1": "0.00",
                "price2": "0.00",
                "price3": "0.00",
                "price4": "0.00"
            }
        ]
    }
}