{
    "timestamp": "استنفار_2025-05-25_09-43-28_836577",
    "url": "http://localhost:8000/api/items/?s=d&fields=id,name,price1,price2,price3,price4,has_img,images,stock,origin,place,",
    "headers": {
        "Content-Length": "",
        "Content-Type": "text/plain",
        "Host": "localhost:8000",
        "Connection": "keep-alive",
        "Sec-Ch-Ua-Platform": "\"Linux\"",
        "User-Agent": "Mozilla/5.0 (X11; Linux x86_64) AppleWebKit/537.36 (KHTML, like Gecko) Chrome/136.0.0.0 Safari/537.36",
        "Accept": "application/json, text/plain, */*",
        "Sec-Ch-Ua": "\"Chromium\";v=\"136\", \"Google Chrome\";v=\"136\", \"Not.A/Brand\";v=\"99\"",
        "Sec-Ch-Ua-Mobile": "?0",
        "Origin": "http://localhost:5173",
        "Sec-Fetch-Site": "same-site",
        "Sec-Fetch-Mode": "cors",
        "Sec-Fetch-Dest": "empty",
        "Referer": "http://localhost:5173/",
        "Accept-Encoding": "gzip, deflate, br, zstd",
        "Accept-Language": "en-US,en;q=0.9,ar-EG;q=0.8,ar;q=0.7"
    },
    "request_body": null,
    "response_status": 200,
    "response_body": {
        "count": 89,
        "next": "http://localhost:8000/api/items/?fields=id%2Cname%2Cprice1%2Cprice2%2Cprice3%2Cprice4%2Chas_img%2Cimages%2Cstock%2Corigin%2Cplace%2C&limit=12&offset=12&s=d",
        "previous": null,
        "results": [
            {
                "id": 1000164,
                "images": [],
                "stock": [],
                "name": "aaaaaaaa",
                "price1": "1.00",
                "price2": "1.10",
                "price3": "1.20",
                "price4": "1.30",
                "origin": "dsdadsa",
                "place": "23"
            },
            {
                "id": 1000004,
                "images": [],
                "stock": [
                    {
                        "id": 5,
                        "repository_name": "الرئيسي",
                        "quantity": "1.00",
                        "item": 1000004,
                        "repository": 10000
                    }
                ],
                "name": "AC distribution pcb Pro",
                "price1": "0.00",
                "price2": "0.00",
                "price3": "0.00",
                "price4": "0.00",
                "origin": "Turkiye",
                "place": "11"
            },
            {
                "id": 1000008,
                "images": [],
                "stock": [
                    {
                        "id": 9,
                        "repository_name": "الرئيسي",
                        "quantity": "1.00",
                        "item": 1000008,
                        "repository": 10000
                    }
                ],
                "name": "Alex rod china coating",
                "price1": "0.00",
                "price2": "0.00",
                "price3": "0.00",
                "price4": "0.00",
                "origin": "USA",
                "place": "24"
            },
            {
                "id": 1000010,
                "images": [],
                "stock": [
                    {
                        "id": 11,
                        "repository_name": "الرئيسي",
                        "quantity": "5.00",
                        "item": 1000010,
                        "repository": 10000
                    }
                ],
                "name": "BEAM COMBINER PRO w holder",
                "price1": "0.00",
                "price2": "0.00",
                "price3": "0.00",
                "price4": "0.00",
                "origin": "USA",
                "place": "10"
            },
            {
                "id": 1000011,
                "images": [],
                "stock": [
                    {
                        "id": 12,
                        "repository_name": "الرئيسي",
                        "quantity": "2.00",
                        "item": 1000011,
                        "repository": 10000
                    }
                ],
                "name": "beam splitter MGL WDO,FLAT,S1UV,UNCOAT,1\"Dx1/16T",
                "price1": "0.00",
                "price2": "0.00",
                "price3": "0.00",
                "price4": "0.00",
                "origin": "USA",
                "place": "10"
            },
            {
                "id": 1000012,
                "images": [],
                "stock": [
                    {
                        "id": 13,
                        "repository_name": "الرئيسي",
                        "quantity": "1.00",
                        "item": 1000012,
                        "repository": 10000
                    }
                ],
                "name": "Cal detector fiber pro",
                "price1": "0.00",
                "price2": "0.00",
                "price3": "0.00",
                "price4": "0.00",
                "origin": "USA",
                "place": "18"
            },
            {
                "id": 1000162,
                "images": [],
                "stock": [
                    {
                        "id": 164,
                        "repository_name": "الرئيسي",
                        "quantity": "102.00",
                        "item": 1000162,
                        "repository": 10000
                    }
                ],
                "name": "Clarity DCD Can",
                "price1": "0.00",
                "price2": "0.00",
                "price3": "0.00",
                "price4": "0.00",
                "origin": null,
                "place": null
            },
            {
                "id": 1000163,
                "images": [],
                "stock": [
                    {
                        "id": 156,
                        "repository_name": "الرئيسي",
                        "quantity": "1.00",
                        "item": 1000163,
                        "repository": 10000
                    }
                ],
                "name": "Clarity DCD Can (Empty)",
                "price1": "0.00",
                "price2": "0.00",
                "price3": "0.00",
                "price4": "0.00",
                "origin": null,
                "place": null
            },
            {
                "id": 1000151,
                "images": [],
                "stock": [
                    {
                        "id": 161,
                        "repository_name": "الرئيسي",
                        "quantity": "62.00",
                        "item": 1000151,
                        "repository": 10000
                    }
                ],
                "name": "DCD Can v1",
                "price1": "0.00",
                "price2": "0.00",
                "price3": "0.00",
                "price4": "0.00",
                "origin": null,
                "place": null
            },
            {
                "id": 1000154,
                "images": [],
                "stock": [
                    {
                        "id": 158,
                        "repository_name": "الرئيسي",
                        "quantity": "46.00",
                        "item": 1000154,
                        "repository": 10000
                    }
                ],
                "name": "DCD Can v1 (Empty)",
                "price1": "0.00",
                "price2": "0.00",
                "price3": "0.00",
                "price4": "0.00",
                "origin": null,
                "place": null
            },
            {
                "id": 1000152,
                "images": [],
                "stock": [
                    {
                        "id": 162,
                        "repository_name": "الرئيسي",
                        "quantity": "10.00",
                        "item": 1000152,
                        "repository": 10000
                    }
                ],
                "name": "DCD Can v2",
                "price1": "0.00",
                "price2": "0.00",
                "price3": "0.00",
                "price4": "0.00",
                "origin": null,
                "place": null
            },
            {
                "id": 1000155,
                "images": [],
                "stock": [
                    {
                        "id": 163,
                        "repository_name": "الرئيسي",
                        "quantity": "3.00",
                        "item": 1000155,
                        "repository": 10000
                    }
                ],
                "name": "DCD Can v2 (Empty)",
                "price1": "0.00",
                "price2": "0.00",
                "price3": "0.00",
                "price4": "0.00",
                "origin": null,
                "place": null
            }
        ]
    }
}