{
    "timestamp": "استنفار_2025-05-25_08-24-40_302158",
    "url": "http://localhost:8000/api/items/?fields=id%2Cname%2Cprice1%2Cprice2%2Cprice3%2Cprice4%2Chas_img%2Cimages%2Cstock%2C&limit=12&offset=36&s=+%40%40",
    "headers": {
        "Content-Length": "",
        "Content-Type": "text/plain",
        "Host": "localhost:8000",
        "Connection": "keep-alive",
        "Sec-Ch-Ua-Platform": "\"Linux\"",
        "User-Agent": "Mozilla/5.0 (X11; Linux x86_64) AppleWebKit/537.36 (KHTML, like Gecko) Chrome/136.0.0.0 Safari/537.36",
        "Accept": "application/json, text/plain, */*",
        "Sec-Ch-Ua": "\"Chromium\";v=\"136\", \"Google Chrome\";v=\"136\", \"Not.A/Brand\";v=\"99\"",
        "Sec-Ch-Ua-Mobile": "?0",
        "Origin": "http://localhost:5173",
        "Sec-Fetch-Site": "same-site",
        "Sec-Fetch-Mode": "cors",
        "Sec-Fetch-Dest": "empty",
        "Referer": "http://localhost:5173/",
        "Accept-Encoding": "gzip, deflate, br, zstd",
        "Accept-Language": "en-US,en;q=0.9,ar-EG;q=0.8,ar;q=0.7"
    },
    "request_body": null,
    "response_status": 200,
    "response_body": {
        "count": 121,
        "next": "http://localhost:8000/api/items/?fields=id%2Cname%2Cprice1%2Cprice2%2Cprice3%2Cprice4%2Chas_img%2Cimages%2Cstock%2C&limit=12&offset=48&s=+%40%40",
        "previous": "http://localhost:8000/api/items/?fields=id%2Cname%2Cprice1%2Cprice2%2Cprice3%2Cprice4%2Chas_img%2Cimages%2Cstock%2C&limit=12&offset=24&s=+%40%40",
        "results": [
            {
                "id": 1000041,
                "images": [],
                "stock": [
                    {
                        "id": 42,
                        "repository_name": "الرئيسي",
                        "quantity": "1.00",
                        "item": 1000041,
                        "repository": 10000
                    }
                ],
                "name": "Fiber kit HV side, HVPS ##USA @@14",
                "price1": "0.00",
                "price2": "0.00",
                "price3": "0.00",
                "price4": "0.00"
            },
            {
                "id": 1000042,
                "images": [],
                "stock": [
                    {
                        "id": 43,
                        "repository_name": "الرئيسي",
                        "quantity": "1.00",
                        "item": 1000042,
                        "repository": 10000
                    }
                ],
                "name": "FIBER RECEPTACLE PRO focus house ##USA @@9",
                "price1": "0.00",
                "price2": "0.00",
                "price3": "0.00",
                "price4": "0.00"
            },
            {
                "id": 1000159,
                "images": [],
                "stock": [
                    {
                        "id": 152,
                        "repository_name": "الرئيسي",
                        "quantity": "6.00",
                        "item": 1000159,
                        "repository": 10000
                    }
                ],
                "name": "Filter connector ## @@5",
                "price1": "0.00",
                "price2": "0.00",
                "price3": "0.00",
                "price4": "0.00"
            },
            {
                "id": 1000160,
                "images": [],
                "stock": [
                    {
                        "id": 153,
                        "repository_name": "الرئيسي",
                        "quantity": "6.00",
                        "item": 1000160,
                        "repository": 10000
                    }
                ],
                "name": "Filter L connector ## @@5",
                "price1": "0.00",
                "price2": "0.00",
                "price3": "0.00",
                "price4": "0.00"
            },
            {
                "id": 1000043,
                "images": [],
                "stock": [
                    {
                        "id": 44,
                        "repository_name": "الرئيسي",
                        "quantity": "7.00",
                        "item": 1000043,
                        "repository": 10000
                    }
                ],
                "name": "FINGER SWITCH MGL ##USA @@15",
                "price1": "0.00",
                "price2": "0.00",
                "price3": "0.00",
                "price4": "0.00"
            },
            {
                "id": 1000044,
                "images": [],
                "stock": [
                    {
                        "id": 45,
                        "repository_name": "الرئيسي",
                        "quantity": "5.00",
                        "item": 1000044,
                        "repository": 10000
                    }
                ],
                "name": "FINGER SWITCH PRO pcb ##USA @@15",
                "price1": "0.00",
                "price2": "0.00",
                "price3": "0.00",
                "price4": "0.00"
            },
            {
                "id": 1000045,
                "images": [],
                "stock": [
                    {
                        "id": 46,
                        "repository_name": "الرئيسي",
                        "quantity": "16.00",
                        "item": 1000045,
                        "repository": 10000
                    }
                ],
                "name": "flashlamp,reartip,700t,4'arc,8 ##USA, UK @@28",
                "price1": "0.00",
                "price2": "0.00",
                "price3": "0.00",
                "price4": "0.00"
            },
            {
                "id": 1000046,
                "images": [],
                "stock": [
                    {
                        "id": 47,
                        "repository_name": "الرئيسي",
                        "quantity": "1.00",
                        "item": 1000046,
                        "repository": 10000
                    }
                ],
                "name": "FLOW SWITCH 0.50 GPM, FS380P PRO ##USA @@14",
                "price1": "0.00",
                "price2": "0.00",
                "price3": "0.00",
                "price4": "0.00"
            },
            {
                "id": 1000047,
                "images": [],
                "stock": [
                    {
                        "id": 48,
                        "repository_name": "الرئيسي",
                        "quantity": "6.00",
                        "item": 1000047,
                        "repository": 10000
                    }
                ],
                "name": "focus lens pro LENS,PL/CX,25.4D,50.8FL, HE BBAR 8050-00-0010 ##USA, Turkiye, China @@9",
                "price1": "0.00",
                "price2": "0.00",
                "price3": "0.00",
                "price4": "0.00"
            },
            {
                "id": 1000149,
                "images": [],
                "stock": [
                    {
                        "id": 150,
                        "repository_name": "الرئيسي",
                        "quantity": "1.00",
                        "item": 1000149,
                        "repository": 10000
                    }
                ],
                "name": "Foot switch electrical ##China @@20",
                "price1": "0.00",
                "price2": "0.00",
                "price3": "0.00",
                "price4": "0.00"
            },
            {
                "id": 1000049,
                "images": [],
                "stock": [
                    {
                        "id": 50,
                        "repository_name": "الرئيسي",
                        "quantity": "7.00",
                        "item": 1000049,
                        "repository": 10000
                    }
                ],
                "name": "GMAX pro Alex turning Mirror ##USA @@10",
                "price1": "0.00",
                "price2": "0.00",
                "price3": "0.00",
                "price4": "0.00"
            },
            {
                "id": 1000050,
                "images": [],
                "stock": [
                    {
                        "id": 51,
                        "repository_name": "الرئيسي",
                        "quantity": "2.00",
                        "item": 1000050,
                        "repository": 10000
                    }
                ],
                "name": "GMAX pro Beam Splitter ##USA @@10",
                "price1": "0.00",
                "price2": "0.00",
                "price3": "0.00",
                "price4": "0.00"
            }
        ]
    }
}