{
    "timestamp": "استنفار_2025-05-25_08-48-58_248703",
    "url": "http://localhost:8000/api/items/?s=usa,&fields=id,name,price1,price2,price3,price4,has_img,images,stock,origin,place,",
    "headers": {
        "Content-Length": "",
        "Content-Type": "text/plain",
        "Host": "localhost:8000",
        "Connection": "keep-alive",
        "Sec-Ch-Ua-Platform": "\"Linux\"",
        "User-Agent": "Mozilla/5.0 (X11; Linux x86_64) AppleWebKit/537.36 (KHTML, like Gecko) Chrome/136.0.0.0 Safari/537.36",
        "Accept": "application/json, text/plain, */*",
        "Sec-Ch-Ua": "\"Chromium\";v=\"136\", \"Google Chrome\";v=\"136\", \"Not.A/Brand\";v=\"99\"",
        "Sec-Ch-Ua-Mobile": "?0",
        "Origin": "http://localhost:5173",
        "Sec-Fetch-Site": "same-site",
        "Sec-Fetch-Mode": "cors",
        "Sec-Fetch-Dest": "empty",
        "Referer": "http://localhost:5173/",
        "Accept-Encoding": "gzip, deflate, br, zstd",
        "Accept-Language": "en-US,en;q=0.9,ar-EG;q=0.8,ar;q=0.7"
    },
    "request_body": null,
    "response_status": 200,
    "response_body": {
        "count": 38,
        "next": "http://localhost:8000/api/items/?fields=id%2Cname%2Cprice1%2Cprice2%2Cprice3%2Cprice4%2Chas_img%2Cimages%2Cstock%2Corigin%2Cplace%2C&limit=12&offset=12&s=usa%2C",
        "previous": null,
        "results": [
            {
                "id": 1000000,
                "images": [],
                "stock": [
                    {
                        "id": 1,
                        "repository_name": "الرئيسي",
                        "quantity": "8.00",
                        "item": 1000000,
                        "repository": 10000
                    }
                ],
                "name": "12/15/18 LENS cap pro",
                "price1": "0.00",
                "price2": "0.00",
                "price3": "0.00",
                "price4": "0.00",
                "origin": "USA, Turkiye",
                "place": "9"
            },
            {
                "id": 1000001,
                "images": [],
                "stock": [
                    {
                        "id": 2,
                        "repository_name": "الرئيسي",
                        "quantity": "5.00",
                        "item": 1000001,
                        "repository": 10000
                    }
                ],
                "name": "12/15/18MM  - lens cap MGL",
                "price1": "0.00",
                "price2": "0.00",
                "price3": "0.00",
                "price4": "0.00",
                "origin": "USA, Turkiye",
                "place": "9"
            },
            {
                "id": 1000002,
                "images": [],
                "stock": [
                    {
                        "id": 3,
                        "repository_name": "الرئيسي",
                        "quantity": "6.00",
                        "item": 1000002,
                        "repository": 10000
                    }
                ],
                "name": "20/22/24MM  - lens cap Pro",
                "price1": "0.00",
                "price2": "0.00",
                "price3": "0.00",
                "price4": "0.00",
                "origin": "USA, Turkiye",
                "place": "9"
            },
            {
                "id": 1000018,
                "images": [],
                "stock": [
                    {
                        "id": 19,
                        "repository_name": "الرئيسي",
                        "quantity": "0.00",
                        "item": 1000018,
                        "repository": 10000
                    }
                ],
                "name": "DI Filter MGL",
                "price1": "0.00",
                "price2": "0.00",
                "price3": "0.00",
                "price4": "0.00",
                "origin": "USA, Turkiye",
                "place": ""
            },
            {
                "id": 1000019,
                "images": [],
                "stock": [
                    {
                        "id": 20,
                        "repository_name": "الرئيسي",
                        "quantity": "3.00",
                        "item": 1000019,
                        "repository": 10000
                    }
                ],
                "name": "DI Filter PRO",
                "price1": "0.00",
                "price2": "0.00",
                "price3": "0.00",
                "price4": "0.00",
                "origin": "USA, Turkiye",
                "place": "20"
            },
            {
                "id": 1000021,
                "images": [],
                "stock": [
                    {
                        "id": 22,
                        "repository_name": "الرئيسي",
                        "quantity": "8.00",
                        "item": 1000021,
                        "repository": 10000
                    }
                ],
                "name": "Distance gauge 12 mm MGL",
                "price1": "0.00",
                "price2": "0.00",
                "price3": "0.00",
                "price4": "0.00",
                "origin": "USA, China, IR",
                "place": "8"
            },
            {
                "id": 1000140,
                "images": [],
                "stock": [
                    {
                        "id": 141,
                        "repository_name": "الرئيسي",
                        "quantity": "1.00",
                        "item": 1000140,
                        "repository": 10000
                    }
                ],
                "name": "Distance gauge 12 mm PRO",
                "price1": "0.00",
                "price2": "0.00",
                "price3": "0.00",
                "price4": "0.00",
                "origin": "USA, China, IR",
                "place": "8"
            },
            {
                "id": 1000022,
                "images": [],
                "stock": [
                    {
                        "id": 23,
                        "repository_name": "الرئيسي",
                        "quantity": "0.00",
                        "item": 1000022,
                        "repository": 10000
                    }
                ],
                "name": "Distance gauge 15 mm MGL",
                "price1": "0.00",
                "price2": "0.00",
                "price3": "0.00",
                "price4": "0.00",
                "origin": "USA, China, IR",
                "place": ""
            },
            {
                "id": 1000023,
                "images": [],
                "stock": [
                    {
                        "id": 24,
                        "repository_name": "الرئيسي",
                        "quantity": "3.00",
                        "item": 1000023,
                        "repository": 10000
                    }
                ],
                "name": "Distance gauge 15 mm PRO",
                "price1": "0.00",
                "price2": "0.00",
                "price3": "0.00",
                "price4": "0.00",
                "origin": "USA, China, IR",
                "place": "8"
            },
            {
                "id": 1000024,
                "images": [],
                "stock": [
                    {
                        "id": 25,
                        "repository_name": "الرئيسي",
                        "quantity": "0.00",
                        "item": 1000024,
                        "repository": 10000
                    }
                ],
                "name": "Distance gauge 18 mm MGL",
                "price1": "0.00",
                "price2": "0.00",
                "price3": "0.00",
                "price4": "0.00",
                "origin": "USA, Turkiye",
                "place": ""
            },
            {
                "id": 1000025,
                "images": [],
                "stock": [
                    {
                        "id": 26,
                        "repository_name": "الرئيسي",
                        "quantity": "2.00",
                        "item": 1000025,
                        "repository": 10000
                    }
                ],
                "name": "Distance gauge 18 mm PRO",
                "price1": "0.00",
                "price2": "0.00",
                "price3": "0.00",
                "price4": "500.00",
                "origin": "USA, China, IR",
                "place": "8 1"
            },
            {
                "id": 1000026,
                "images": [],
                "stock": [
                    {
                        "id": 27,
                        "repository_name": "الرئيسي",
                        "quantity": "9.00",
                        "item": 1000026,
                        "repository": 10000
                    }
                ],
                "name": "Distance gauge 20 mm PRO",
                "price1": "0.00",
                "price2": "0.00",
                "price3": "0.00",
                "price4": "0.00",
                "origin": "USA, China, IR",
                "place": "8"
            }
        ]
    }
}