{
    "timestamp": "استنفار_2025-05-25_08-27-11_871852",
    "url": "http://localhost:8000/api/items/?limit=12&offset=12&s=",
    "headers": {
        "Content-Length": "",
        "Content-Type": "text/plain",
        "Host": "localhost:8000",
        "Connection": "keep-alive",
        "Sec-Ch-Ua-Platform": "\"Linux\"",
        "User-Agent": "Mozilla/5.0 (X11; Linux x86_64) AppleWebKit/537.36 (KHTML, like Gecko) Chrome/136.0.0.0 Safari/537.36",
        "Accept": "application/json, text/plain, */*",
        "Sec-Ch-Ua": "\"Chromium\";v=\"136\", \"Google Chrome\";v=\"136\", \"Not.A/Brand\";v=\"99\"",
        "Sec-Ch-Ua-Mobile": "?0",
        "Origin": "http://localhost:5173",
        "Sec-Fetch-Site": "same-site",
        "Sec-Fetch-Mode": "cors",
        "Sec-Fetch-Dest": "empty",
        "Referer": "http://localhost:5173/",
        "Accept-Encoding": "gzip, deflate, br, zstd",
        "Accept-Language": "en-US,en;q=0.9,ar-EG;q=0.8,ar;q=0.7"
    },
    "request_body": null,
    "response_status": 200,
    "response_body": {
        "count": 164,
        "next": "http://localhost:8000/api/items/?limit=12&offset=24&s=",
        "previous": "http://localhost:8000/api/items/?limit=12&s=",
        "results": [
            {
                "id": 1000012,
                "by_username": "استنفار",
                "images": [],
                "stock": [
                    {
                        "id": 13,
                        "repository_name": "الرئيسي",
                        "quantity": "1.00",
                        "item": 1000012,
                        "repository": 10000
                    }
                ],
                "barcodes": [],
                "created_at": "2025-03-13T08:57:33.014733Z",
                "updated_at": "2025-04-06T14:58:10.407707Z",
                "name": "Cal detector fiber pro ##USA @@18",
                "price1": "0.00",
                "price2": "0.00",
                "price3": "0.00",
                "price4": "0.00",
                "is_refillable": false,
                "origin": null,
                "place": null,
                "by": 10000
            },
            {
                "id": 1000013,
                "by_username": "استنفار",
                "images": [],
                "stock": [
                    {
                        "id": 14,
                        "repository_name": "الرئيسي",
                        "quantity": "0.00",
                        "item": 1000013,
                        "repository": 10000
                    }
                ],
                "barcodes": [
                    {
                        "id": 12,
                        "barcode": "1510-00-7224"
                    }
                ],
                "created_at": "2025-03-13T08:57:33.034062Z",
                "updated_at": "2025-03-13T08:57:33.034133Z",
                "name": "Cap,PFN,2KV,3x550uF MGL ##Turkiye",
                "price1": "0.00",
                "price2": "0.00",
                "price3": "0.00",
                "price4": "0.00",
                "is_refillable": false,
                "origin": null,
                "place": null,
                "by": 10000
            },
            {
                "id": 1000014,
                "by_username": "استنفار",
                "images": [],
                "stock": [
                    {
                        "id": 15,
                        "repository_name": "الرئيسي",
                        "quantity": "0.00",
                        "item": 1000014,
                        "repository": 10000
                    }
                ],
                "barcodes": [
                    {
                        "id": 13,
                        "barcode": "1510-00-7010"
                    }
                ],
                "created_at": "2025-03-13T08:57:33.065236Z",
                "updated_at": "2025-03-13T08:57:33.065305Z",
                "name": "CAP,PFN,9000uF,1.4KV Pro ##Turkiye",
                "price1": "0.00",
                "price2": "0.00",
                "price3": "0.00",
                "price4": "0.00",
                "is_refillable": false,
                "origin": null,
                "place": null,
                "by": 10000
            },
            {
                "id": 1000162,
                "by_username": "استنفار",
                "images": [],
                "stock": [
                    {
                        "id": 164,
                        "repository_name": "الرئيسي",
                        "quantity": "102.00",
                        "item": 1000162,
                        "repository": 10000
                    }
                ],
                "barcodes": [],
                "created_at": "2025-04-19T19:20:20.491256Z",
                "updated_at": "2025-04-30T13:35:27.726392Z",
                "name": "Clarity DCD Can",
                "price1": "0.00",
                "price2": "0.00",
                "price3": "0.00",
                "price4": "0.00",
                "is_refillable": true,
                "origin": null,
                "place": null,
                "by": 10000
            },
            {
                "id": 1000163,
                "by_username": "استنفار",
                "images": [],
                "stock": [
                    {
                        "id": 156,
                        "repository_name": "الرئيسي",
                        "quantity": "1.00",
                        "item": 1000163,
                        "repository": 10000
                    }
                ],
                "barcodes": [],
                "created_at": "2025-04-19T19:20:25.728758Z",
                "updated_at": "2025-04-30T13:37:10.062189Z",
                "name": "Clarity DCD Can (Empty)",
                "price1": "0.00",
                "price2": "0.00",
                "price3": "0.00",
                "price4": "0.00",
                "is_refillable": false,
                "origin": null,
                "place": null,
                "by": 10000
            },
            {
                "id": 1000151,
                "by_username": "استنفار",
                "images": [],
                "stock": [
                    {
                        "id": 161,
                        "repository_name": "الرئيسي",
                        "quantity": "10.00",
                        "item": 1000151,
                        "repository": 10000
                    }
                ],
                "barcodes": [],
                "created_at": "2025-04-13T06:27:32.002613Z",
                "updated_at": "2025-04-30T13:33:45.661467Z",
                "name": "DCD Can v1",
                "price1": "0.00",
                "price2": "0.00",
                "price3": "0.00",
                "price4": "0.00",
                "is_refillable": true,
                "origin": null,
                "place": null,
                "by": 10000
            },
            {
                "id": 1000154,
                "by_username": "استنفار",
                "images": [],
                "stock": [
                    {
                        "id": 158,
                        "repository_name": "الرئيسي",
                        "quantity": "46.00",
                        "item": 1000154,
                        "repository": 10000
                    }
                ],
                "barcodes": [],
                "created_at": "2025-04-13T06:28:07.234721Z",
                "updated_at": "2025-04-30T13:36:37.726754Z",
                "name": "DCD Can v1 (Empty)",
                "price1": "0.00",
                "price2": "0.00",
                "price3": "0.00",
                "price4": "0.00",
                "is_refillable": false,
                "origin": null,
                "place": null,
                "by": 10000
            },
            {
                "id": 1000152,
                "by_username": "استنفار",
                "images": [],
                "stock": [
                    {
                        "id": 162,
                        "repository_name": "الرئيسي",
                        "quantity": "10.00",
                        "item": 1000152,
                        "repository": 10000
                    }
                ],
                "barcodes": [],
                "created_at": "2025-04-13T06:27:37.734167Z",
                "updated_at": "2025-04-30T13:34:11.617525Z",
                "name": "DCD Can v2",
                "price1": "0.00",
                "price2": "0.00",
                "price3": "0.00",
                "price4": "0.00",
                "is_refillable": true,
                "origin": null,
                "place": null,
                "by": 10000
            },
            {
                "id": 1000155,
                "by_username": "استنفار",
                "images": [],
                "stock": [
                    {
                        "id": 163,
                        "repository_name": "الرئيسي",
                        "quantity": "3.00",
                        "item": 1000155,
                        "repository": 10000
                    }
                ],
                "barcodes": [],
                "created_at": "2025-04-13T06:28:16.286589Z",
                "updated_at": "2025-04-30T13:37:40.843304Z",
                "name": "DCD Can v2 (Empty)",
                "price1": "0.00",
                "price2": "0.00",
                "price3": "0.00",
                "price4": "0.00",
                "is_refillable": false,
                "origin": null,
                "place": null,
                "by": 10000
            },
            {
                "id": 1000153,
                "by_username": "استنفار",
                "images": [],
                "stock": [
                    {
                        "id": 157,
                        "repository_name": "الرئيسي",
                        "quantity": "280.00",
                        "item": 1000153,
                        "repository": 10000
                    }
                ],
                "barcodes": [],
                "created_at": "2025-04-13T06:27:57.550890Z",
                "updated_at": "2025-04-30T13:34:38.624031Z",
                "name": "DCD Can v3",
                "price1": "0.00",
                "price2": "0.00",
                "price3": "0.00",
                "price4": "0.00",
                "is_refillable": true,
                "origin": null,
                "place": null,
                "by": 10000
            },
            {
                "id": 1000156,
                "by_username": "استنفار",
                "images": [],
                "stock": [
                    {
                        "id": 155,
                        "repository_name": "الرئيسي",
                        "quantity": "0.00",
                        "item": 1000156,
                        "repository": 10000
                    }
                ],
                "barcodes": [],
                "created_at": "2025-04-13T06:28:23.907199Z",
                "updated_at": "2025-04-30T13:37:25.007445Z",
                "name": "DCD Can v3 (Empty)",
                "price1": "0.00",
                "price2": "0.00",
                "price3": "0.00",
                "price4": "0.00",
                "is_refillable": false,
                "origin": null,
                "place": null,
                "by": 10000
            },
            {
                "id": 1000015,
                "by_username": "استنفار",
                "images": [],
                "stock": [
                    {
                        "id": 16,
                        "repository_name": "الرئيسي",
                        "quantity": "5.00",
                        "item": 1000015,
                        "repository": 10000
                    }
                ],
                "barcodes": [],
                "created_at": "2025-03-13T08:57:33.095582Z",
                "updated_at": "2025-04-06T13:33:27.926533Z",
                "name": "DCD filter inside machine ##IR @@15",
                "price1": "0.00",
                "price2": "0.00",
                "price3": "0.00",
                "price4": "0.00",
                "is_refillable": false,
                "origin": null,
                "place": null,
                "by": 10000
            }
        ]
    }
}