{
    "timestamp": "استنفار_2025-05-31_15-26-18_946654",
    "url": "http://localhost:8000/api/items/?s=f&fields=id,name,price1,price2,price3,price4,has_img,images,stock,origin,place,",
    "headers": {
        "Content-Length": "",
        "Content-Type": "text/plain",
        "Host": "localhost:8000",
        "Connection": "keep-alive",
        "Sec-Ch-Ua-Platform": "\"Linux\"",
        "User-Agent": "Mozilla/5.0 (X11; Linux x86_64) AppleWebKit/537.36 (KHTML, like Gecko) Chrome/136.0.0.0 Safari/537.36",
        "Accept": "application/json, text/plain, */*",
        "Sec-Ch-Ua": "\"Chromium\";v=\"136\", \"Google Chrome\";v=\"136\", \"Not.A/Brand\";v=\"99\"",
        "Sec-Ch-Ua-Mobile": "?0",
        "Origin": "http://localhost:5173",
        "Sec-Fetch-Site": "same-site",
        "Sec-Fetch-Mode": "cors",
        "Sec-Fetch-Dest": "empty",
        "Referer": "http://localhost:5173/",
        "Accept-Encoding": "gzip, deflate, br, zstd",
        "Accept-Language": "en-US,en;q=0.9,ar-EG;q=0.8,ar;q=0.7"
    },
    "request_body": null,
    "response_status": 200,
    "response_body": {
        "count": 45,
        "next": "http://localhost:8000/api/items/?fields=id%2Cname%2Cprice1%2Cprice2%2Cprice3%2Cprice4%2Chas_img%2Cimages%2Cstock%2Corigin%2Cplace%2C&limit=12&offset=12&s=f",
        "previous": null,
        "results": [
            {
                "id": 1000000,
                "images": [],
                "stock": [
                    {
                        "id": 1,
                        "repository_name": "الرئيسي",
                        "quantity": "8.00",
                        "item": 1000000,
                        "repository": 10000
                    }
                ],
                "name": "12/15/18 LENS cap pro ##USA, Turkiye @@9",
                "price1": "0.00",
                "price2": "0.00",
                "price3": "0.00",
                "price4": "0.00",
                "origin": "ewf",
                "place": "reew"
            },
            {
                "id": 1000011,
                "images": [],
                "stock": [
                    {
                        "id": 12,
                        "repository_name": "الرئيسي",
                        "quantity": "2.00",
                        "item": 1000011,
                        "repository": 10000
                    }
                ],
                "name": "beam splitter MGL WDO,FLAT,S1UV,UNCOAT,1\"Dx1/16T ##USA @@10",
                "price1": "0.00",
                "price2": "0.00",
                "price3": "0.00",
                "price4": "0.00",
                "origin": null,
                "place": null
            },
            {
                "id": 1000012,
                "images": [],
                "stock": [
                    {
                        "id": 13,
                        "repository_name": "الرئيسي",
                        "quantity": "1.00",
                        "item": 1000012,
                        "repository": 10000
                    }
                ],
                "name": "Cal detector fiber pro ##USA @@18",
                "price1": "0.00",
                "price2": "0.00",
                "price3": "0.00",
                "price4": "0.00",
                "origin": null,
                "place": null
            },
            {
                "id": 1000013,
                "images": [],
                "stock": [
                    {
                        "id": 14,
                        "repository_name": "الرئيسي",
                        "quantity": "0.00",
                        "item": 1000013,
                        "repository": 10000
                    }
                ],
                "name": "Cap,PFN,2KV,3x550uF MGL ##Turkiye",
                "price1": "0.00",
                "price2": "0.00",
                "price3": "0.00",
                "price4": "0.00",
                "origin": null,
                "place": null
            },
            {
                "id": 1000014,
                "images": [],
                "stock": [
                    {
                        "id": 15,
                        "repository_name": "الرئيسي",
                        "quantity": "0.00",
                        "item": 1000014,
                        "repository": 10000
                    }
                ],
                "name": "CAP,PFN,9000uF,1.4KV Pro ##Turkiye",
                "price1": "0.00",
                "price2": "0.00",
                "price3": "0.00",
                "price4": "0.00",
                "origin": null,
                "place": null
            },
            {
                "id": 1000015,
                "images": [],
                "stock": [
                    {
                        "id": 16,
                        "repository_name": "الرئيسي",
                        "quantity": "5.00",
                        "item": 1000015,
                        "repository": 10000
                    }
                ],
                "name": "DCD filter inside machine ##IR @@15",
                "price1": "0.00",
                "price2": "0.00",
                "price3": "0.00",
                "price4": "0.00",
                "origin": null,
                "place": null
            },
            {
                "id": 1000018,
                "images": [],
                "stock": [
                    {
                        "id": 19,
                        "repository_name": "الرئيسي",
                        "quantity": "0.00",
                        "item": 1000018,
                        "repository": 10000
                    }
                ],
                "name": "DI Filter MGL ##USA, Turkiye",
                "price1": "0.00",
                "price2": "0.00",
                "price3": "0.00",
                "price4": "0.00",
                "origin": null,
                "place": null
            },
            {
                "id": 1000019,
                "images": [],
                "stock": [
                    {
                        "id": 20,
                        "repository_name": "الرئيسي",
                        "quantity": "3.00",
                        "item": 1000019,
                        "repository": 10000
                    }
                ],
                "name": "DI Filter PRO ##USA, Turkiye @@20",
                "price1": "0.00",
                "price2": "0.00",
                "price3": "0.00",
                "price4": "0.00",
                "origin": null,
                "place": null
            },
            {
                "id": 1000031,
                "images": [],
                "stock": [
                    {
                        "id": 32,
                        "repository_name": "الرئيسي",
                        "quantity": "5.00",
                        "item": 1000031,
                        "repository": 10000
                    }
                ],
                "name": "FAN FILTER DOOR DCD H/P PRO ##USA @@15",
                "price1": "0.00",
                "price2": "0.00",
                "price3": "0.00",
                "price4": "0.00",
                "origin": null,
                "place": null
            },
            {
                "id": 1000148,
                "images": [],
                "stock": [
                    {
                        "id": 149,
                        "repository_name": "الرئيسي",
                        "quantity": "24.00",
                        "item": 1000148,
                        "repository": 10000
                    }
                ],
                "name": "Fan fixing plastic ## @@15",
                "price1": "0.00",
                "price2": "0.00",
                "price3": "0.00",
                "price4": "0.00",
                "origin": null,
                "place": null
            },
            {
                "id": 1000032,
                "images": [],
                "stock": [
                    {
                        "id": 33,
                        "repository_name": "الرئيسي",
                        "quantity": "6.00",
                        "item": 1000032,
                        "repository": 10000
                    }
                ],
                "name": "FAN, HP PRO ##USA @@15",
                "price1": "0.00",
                "price2": "0.00",
                "price3": "0.00",
                "price4": "0.00",
                "origin": null,
                "place": null
            },
            {
                "id": 1000033,
                "images": [],
                "stock": [
                    {
                        "id": 34,
                        "repository_name": "الرئيسي",
                        "quantity": "1.00",
                        "item": 1000033,
                        "repository": 10000
                    }
                ],
                "name": "fiber 10/12/15 MGL (used) ##USA @@فوق الصف 4",
                "price1": "0.00",
                "price2": "0.00",
                "price3": "0.00",
                "price4": "0.00",
                "origin": null,
                "place": null
            }
        ]
    }
}