{
    "timestamp": "استنفار_2025-05-25_08-41-39_715003",
    "url": "http://localhost:8000/api/items/?s=15&fields=id,name,price1,price2,price3,price4,has_img,images,stock,",
    "headers": {
        "Content-Length": "",
        "Content-Type": "text/plain",
        "Host": "localhost:8000",
        "Connection": "keep-alive",
        "Sec-Ch-Ua-Platform": "\"Linux\"",
        "User-Agent": "Mozilla/5.0 (X11; Linux x86_64) AppleWebKit/537.36 (KHTML, like Gecko) Chrome/136.0.0.0 Safari/537.36",
        "Accept": "application/json, text/plain, */*",
        "Sec-Ch-Ua": "\"Chromium\";v=\"136\", \"Google Chrome\";v=\"136\", \"Not.A/Brand\";v=\"99\"",
        "Sec-Ch-Ua-Mobile": "?0",
        "Origin": "http://localhost:5173",
        "Sec-Fetch-Site": "same-site",
        "Sec-Fetch-Mode": "cors",
        "Sec-Fetch-Dest": "empty",
        "Referer": "http://localhost:5173/",
        "Accept-Encoding": "gzip, deflate, br, zstd",
        "Accept-Language": "en-US,en;q=0.9,ar-EG;q=0.8,ar;q=0.7"
    },
    "request_body": null,
    "response_status": 200,
    "response_body": {
        "count": 26,
        "next": "http://localhost:8000/api/items/?fields=id%2Cname%2Cprice1%2Cprice2%2Cprice3%2Cprice4%2Chas_img%2Cimages%2Cstock%2C&limit=12&offset=12&s=15",
        "previous": null,
        "results": [
            {
                "id": 1000000,
                "images": [],
                "stock": [
                    {
                        "id": 1,
                        "repository_name": "الرئيسي",
                        "quantity": "8.00",
                        "item": 1000000,
                        "repository": 10000
                    }
                ],
                "name": "12/15/18 LENS cap pro",
                "price1": "0.00",
                "price2": "0.00",
                "price3": "0.00",
                "price4": "0.00"
            },
            {
                "id": 1000001,
                "images": [],
                "stock": [
                    {
                        "id": 2,
                        "repository_name": "الرئيسي",
                        "quantity": "5.00",
                        "item": 1000001,
                        "repository": 10000
                    }
                ],
                "name": "12/15/18MM  - lens cap MGL",
                "price1": "0.00",
                "price2": "0.00",
                "price3": "0.00",
                "price4": "0.00"
            },
            {
                "id": 1000013,
                "images": [],
                "stock": [
                    {
                        "id": 14,
                        "repository_name": "الرئيسي",
                        "quantity": "0.00",
                        "item": 1000013,
                        "repository": 10000
                    }
                ],
                "name": "Cap,PFN,2KV,3x550uF MGL",
                "price1": "0.00",
                "price2": "0.00",
                "price3": "0.00",
                "price4": "0.00"
            },
            {
                "id": 1000014,
                "images": [],
                "stock": [
                    {
                        "id": 15,
                        "repository_name": "الرئيسي",
                        "quantity": "0.00",
                        "item": 1000014,
                        "repository": 10000
                    }
                ],
                "name": "CAP,PFN,9000uF,1.4KV Pro",
                "price1": "0.00",
                "price2": "0.00",
                "price3": "0.00",
                "price4": "0.00"
            },
            {
                "id": 1000151,
                "images": [],
                "stock": [
                    {
                        "id": 161,
                        "repository_name": "الرئيسي",
                        "quantity": "10.00",
                        "item": 1000151,
                        "repository": 10000
                    }
                ],
                "name": "DCD Can v1",
                "price1": "0.00",
                "price2": "0.00",
                "price3": "0.00",
                "price4": "0.00"
            },
            {
                "id": 1000154,
                "images": [],
                "stock": [
                    {
                        "id": 158,
                        "repository_name": "الرئيسي",
                        "quantity": "46.00",
                        "item": 1000154,
                        "repository": 10000
                    }
                ],
                "name": "DCD Can v1 (Empty)",
                "price1": "0.00",
                "price2": "0.00",
                "price3": "0.00",
                "price4": "0.00"
            },
            {
                "id": 1000152,
                "images": [],
                "stock": [
                    {
                        "id": 162,
                        "repository_name": "الرئيسي",
                        "quantity": "10.00",
                        "item": 1000152,
                        "repository": 10000
                    }
                ],
                "name": "DCD Can v2",
                "price1": "0.00",
                "price2": "0.00",
                "price3": "0.00",
                "price4": "0.00"
            },
            {
                "id": 1000155,
                "images": [],
                "stock": [
                    {
                        "id": 163,
                        "repository_name": "الرئيسي",
                        "quantity": "3.00",
                        "item": 1000155,
                        "repository": 10000
                    }
                ],
                "name": "DCD Can v2 (Empty)",
                "price1": "0.00",
                "price2": "0.00",
                "price3": "0.00",
                "price4": "0.00"
            },
            {
                "id": 1000153,
                "images": [],
                "stock": [
                    {
                        "id": 157,
                        "repository_name": "الرئيسي",
                        "quantity": "280.00",
                        "item": 1000153,
                        "repository": 10000
                    }
                ],
                "name": "DCD Can v3",
                "price1": "0.00",
                "price2": "0.00",
                "price3": "0.00",
                "price4": "0.00"
            },
            {
                "id": 1000156,
                "images": [],
                "stock": [
                    {
                        "id": 155,
                        "repository_name": "الرئيسي",
                        "quantity": "0.00",
                        "item": 1000156,
                        "repository": 10000
                    }
                ],
                "name": "DCD Can v3 (Empty)",
                "price1": "0.00",
                "price2": "0.00",
                "price3": "0.00",
                "price4": "0.00"
            },
            {
                "id": 1000015,
                "images": [],
                "stock": [
                    {
                        "id": 16,
                        "repository_name": "الرئيسي",
                        "quantity": "5.00",
                        "item": 1000015,
                        "repository": 10000
                    }
                ],
                "name": "DCD filter inside machine",
                "price1": "0.00",
                "price2": "0.00",
                "price3": "0.00",
                "price4": "0.00"
            },
            {
                "id": 1000022,
                "images": [],
                "stock": [
                    {
                        "id": 23,
                        "repository_name": "الرئيسي",
                        "quantity": "0.00",
                        "item": 1000022,
                        "repository": 10000
                    }
                ],
                "name": "Distance gauge 15 mm MGL",
                "price1": "0.00",
                "price2": "0.00",
                "price3": "0.00",
                "price4": "0.00"
            }
        ]
    }
}