{
    "timestamp": "استنفار_2025-05-30_21-11-41_200334",
    "url": "http://localhost:8000/api/sales/",
    "headers": {
        "Content-Length": "",
        "Content-Type": "text/plain",
        "Host": "localhost:8000",
        "Connection": "keep-alive",
        "Sec-Ch-Ua-Platform": "\"Linux\"",
        "User-Agent": "Mozilla/5.0 (X11; Linux x86_64) AppleWebKit/537.36 (KHTML, like Gecko) Chrome/136.0.0.0 Safari/537.36",
        "Accept": "application/json, text/plain, */*",
        "Sec-Ch-Ua": "\"Chromium\";v=\"136\", \"Google Chrome\";v=\"136\", \"Not.A/Brand\";v=\"99\"",
        "Sec-Ch-Ua-Mobile": "?0",
        "Origin": "http://localhost:5173",
        "Sec-Fetch-Site": "same-site",
        "Sec-Fetch-Mode": "cors",
        "Sec-Fetch-Dest": "empty",
        "Referer": "http://localhost:5173/",
        "Accept-Encoding": "gzip, deflate, br, zstd",
        "Accept-Language": "en-US,en;q=0.9,ar-EG;q=0.8,ar;q=0.7"
    },
    "request_body": null,
    "response_status": 200,
    "response_body": {
        "count": 79,
        "next": "http://localhost:8000/api/sales/?limit=12&offset=12",
        "previous": null,
        "results": [
            {
                "id": 10000080,
                "s_invoice_items": [
                    {
                        "id": 95,
                        "item_name": "Patient goggles plastic",
                        "repository_name": "الرئيسي",
                        "description": "",
                        "quantity": "1.00",
                        "unit_price": "750.00",
                        "discount": "0.00",
                        "tax_rate": "0.00",
                        "total": "750.00",
                        "item": 1000088,
                        "repository": 10000
                    },
                    {
                        "id": 96,
                        "item_name": "GOGGLE OD6@532 OD6.8@755 OD6@1064",
                        "repository_name": "الرئيسي",
                        "description": "",
                        "quantity": "1.00",
                        "unit_price": "4000.00",
                        "discount": "0.00",
                        "tax_rate": "0.00",
                        "total": "4000.00",
                        "item": 1000052,
                        "repository": 10000
                    }
                ],
                "by_username": "استنفار",
                "owner_name": "Laser Tech",
                "hashed_id": "ff5d76e0",
                "created_at": "2025-05-09T16:16:26.090682Z",
                "updated_at": "2025-05-09T16:16:27.333082Z",
                "issue_date": "2025-05-08",
                "due_date": "2025-05-22",
                "total_amount": "4750.00",
                "remaining_balance": "0.00",
                "status": 3,
                "repository_permit": true,
                "notes": "",
                "owner": 1000025
            },
            {
                "id": 10000078,
                "s_invoice_items": [
                    {
                        "id": 91,
                        "item_name": "GMAX pro Alex turning Mirror",
                        "repository_name": "الرئيسي",
                        "description": "",
                        "quantity": "1.00",
                        "unit_price": "0.00",
                        "discount": "0.00",
                        "tax_rate": "0.00",
                        "total": "0.00",
                        "item": 1000049,
                        "repository": 10000
                    },
                    {
                        "id": 92,
                        "item_name": "BEAM COMBINER PRO w holder",
                        "repository_name": "الرئيسي",
                        "description": "",
                        "quantity": "1.00",
                        "unit_price": "0.00",
                        "discount": "0.00",
                        "tax_rate": "0.00",
                        "total": "0.00",
                        "item": 1000010,
                        "repository": 10000
                    },
                    {
                        "id": 93,
                        "item_name": "beam block pro",
                        "repository_name": "الرئيسي",
                        "description": "",
                        "quantity": "1.00",
                        "unit_price": "0.00",
                        "discount": "0.00",
                        "tax_rate": "0.00",
                        "total": "0.00",
                        "item": 1000009,
                        "repository": 10000
                    }
                ],
                "by_username": "استنفار",
                "owner_name": "صيانه داخليه",
                "hashed_id": "26c2ac9c",
                "created_at": "2025-05-09T16:11:57.817035Z",
                "updated_at": "2025-05-09T16:12:30.506386Z",
                "issue_date": "2025-05-08",
                "due_date": "2025-05-22",
                "total_amount": "0.00",
                "remaining_balance": "0.00",
                "status": 3,
                "repository_permit": true,
                "notes": "",
                "owner": 1000001
            },
            {
                "id": 10000077,
                "s_invoice_items": [
                    {
                        "id": 90,
                        "item_name": "DCD Can v1",
                        "repository_name": "الرئيسي",
                        "description": "",
                        "quantity": "10.00",
                        "unit_price": "470.00",
                        "discount": "0.00",
                        "tax_rate": "0.00",
                        "total": "4700.00",
                        "item": 1000151,
                        "repository": 10000
                    }
                ],
                "by_username": "استنفار",
                "owner_name": "احمد فهمي",
                "hashed_id": "08057260",
                "created_at": "2025-05-06T13:02:39.059666Z",
                "updated_at": "2025-05-06T13:02:39.908190Z",
                "issue_date": "2025-05-06",
                "due_date": "2025-05-20",
                "total_amount": "4700.00",
                "remaining_balance": "0.00",
                "status": 3,
                "repository_permit": true,
                "notes": "",
                "owner": 1000024
            },
            {
                "id": 10000076,
                "s_invoice_items": [
                    {
                        "id": 87,
                        "item_name": "DCD Can v1",
                        "repository_name": "الرئيسي",
                        "description": "",
                        "quantity": "10.00",
                        "unit_price": "500.00",
                        "discount": "0.00",
                        "tax_rate": "0.00",
                        "total": "5000.00",
                        "item": 1000151,
                        "repository": 10000
                    },
                    {
                        "id": 88,
                        "item_name": "DCD Can v2",
                        "repository_name": "الرئيسي",
                        "description": "",
                        "quantity": "6.00",
                        "unit_price": "500.00",
                        "discount": "0.00",
                        "tax_rate": "0.00",
                        "total": "3000.00",
                        "item": 1000152,
                        "repository": 10000
                    },
                    {
                        "id": 89,
                        "item_name": "DCD Can v3",
                        "repository_name": "الرئيسي",
                        "description": "",
                        "quantity": "14.00",
                        "unit_price": "500.00",
                        "discount": "0.00",
                        "tax_rate": "0.00",
                        "total": "7000.00",
                        "item": 1000153,
                        "repository": 10000
                    }
                ],
                "by_username": "استنفار",
                "owner_name": "NBD",
                "hashed_id": "4137d640",
                "created_at": "2025-05-06T08:18:42.647272Z",
                "updated_at": "2025-05-06T08:21:12.483837Z",
                "issue_date": "2025-05-06",
                "due_date": "2025-05-20",
                "total_amount": "15000.00",
                "remaining_balance": "0.00",
                "status": 3,
                "repository_permit": true,
                "notes": "",
                "owner": 1000007
            },
            {
                "id": 10000075,
                "s_invoice_items": [
                    {
                        "id": 86,
                        "item_name": "DCD Can v3",
                        "repository_name": "الرئيسي",
                        "description": "",
                        "quantity": "5.00",
                        "unit_price": "500.00",
                        "discount": "0.00",
                        "tax_rate": "0.00",
                        "total": "2500.00",
                        "item": 1000153,
                        "repository": 10000
                    }
                ],
                "by_username": "استنفار",
                "owner_name": "Dr - Inas almehzanji ( EL Rehab )",
                "hashed_id": "55c153cf",
                "created_at": "2025-05-06T08:17:47.172305Z",
                "updated_at": "2025-05-06T08:17:48.015548Z",
                "issue_date": "2025-05-06",
                "due_date": "2025-05-20",
                "total_amount": "2500.00",
                "remaining_balance": "0.00",
                "status": 3,
                "repository_permit": true,
                "notes": "",
                "owner": 1000019
            },
            {
                "id": 10000074,
                "s_invoice_items": [
                    {
                        "id": 85,
                        "item_name": "Clarity DCD Can",
                        "repository_name": "الرئيسي",
                        "description": "",
                        "quantity": "12.00",
                        "unit_price": "470.00",
                        "discount": "0.00",
                        "tax_rate": "0.00",
                        "total": "5640.00",
                        "item": 1000162,
                        "repository": 10000
                    }
                ],
                "by_username": "استنفار",
                "owner_name": "DR - Mongi",
                "hashed_id": "82c18034",
                "created_at": "2025-05-05T15:07:25.616690Z",
                "updated_at": "2025-05-05T15:07:26.851208Z",
                "issue_date": "2025-05-05",
                "due_date": "2025-05-19",
                "total_amount": "5640.00",
                "remaining_balance": "0.00",
                "status": 3,
                "repository_permit": true,
                "notes": "",
                "owner": 1000006
            },
            {
                "id": 10000073,
                "s_invoice_items": [
                    {
                        "id": 84,
                        "item_name": "DCD Can v1",
                        "repository_name": "الرئيسي",
                        "description": "",
                        "quantity": "60.00",
                        "unit_price": "0.00",
                        "discount": "0.00",
                        "tax_rate": "0.00",
                        "total": "0.00",
                        "item": 1000151,
                        "repository": 10000
                    }
                ],
                "by_username": "استنفار",
                "owner_name": "تارجت",
                "hashed_id": "be33fb04",
                "created_at": "2025-05-05T15:06:10.728008Z",
                "updated_at": "2025-05-05T15:06:12.010697Z",
                "issue_date": "2025-05-05",
                "due_date": "2025-05-19",
                "total_amount": "0.00",
                "remaining_balance": "0.00",
                "status": 3,
                "repository_permit": true,
                "notes": "",
                "owner": 1000002
            },
            {
                "id": 10000072,
                "s_invoice_items": [
                    {
                        "id": 83,
                        "item_name": "DCD Can v3",
                        "repository_name": "الرئيسي",
                        "description": "",
                        "quantity": "20.00",
                        "unit_price": "470.00",
                        "discount": "0.00",
                        "tax_rate": "0.00",
                        "total": "9400.00",
                        "item": 1000153,
                        "repository": 10000
                    }
                ],
                "by_username": "استنفار",
                "owner_name": "Elite",
                "hashed_id": "185d442d",
                "created_at": "2025-05-01T14:28:32.394746Z",
                "updated_at": "2025-05-01T14:28:33.944358Z",
                "issue_date": "2025-05-01",
                "due_date": "2025-05-15",
                "total_amount": "9400.00",
                "remaining_balance": "0.00",
                "status": 3,
                "repository_permit": true,
                "notes": "",
                "owner": 1000008
            },
            {
                "id": 10000071,
                "s_invoice_items": [
                    {
                        "id": 82,
                        "item_name": "Distance gauge 18 mm PRO",
                        "repository_name": "الرئيسي",
                        "description": "",
                        "quantity": "3.00",
                        "unit_price": "500.00",
                        "discount": "0.00",
                        "tax_rate": "0.00",
                        "total": "1500.00",
                        "item": 1000025,
                        "repository": 10000
                    }
                ],
                "by_username": "استنفار",
                "owner_name": "NBD",
                "hashed_id": "0b8850a5",
                "created_at": "2025-04-30T15:22:09.551092Z",
                "updated_at": "2025-04-30T15:22:10.596997Z",
                "issue_date": "2025-04-30",
                "due_date": "2025-05-14",
                "total_amount": "1500.00",
                "remaining_balance": "0.00",
                "status": 3,
                "repository_permit": true,
                "notes": "",
                "owner": 1000007
            },
            {
                "id": 10000070,
                "s_invoice_items": [
                    {
                        "id": 81,
                        "item_name": "Clarity DCD Can",
                        "repository_name": "الرئيسي",
                        "description": "",
                        "quantity": "11.00",
                        "unit_price": "470.00",
                        "discount": "0.00",
                        "tax_rate": "0.00",
                        "total": "5170.00",
                        "item": 1000162,
                        "repository": 10000
                    }
                ],
                "by_username": "استنفار",
                "owner_name": "Dr - Doaa October 3d center ( Clarity )",
                "hashed_id": "0f0feabd",
                "created_at": "2025-04-30T08:48:43.209022Z",
                "updated_at": "2025-04-30T08:48:44.433077Z",
                "issue_date": "2025-04-29",
                "due_date": "2025-05-14",
                "total_amount": "5170.00",
                "remaining_balance": "0.00",
                "status": 3,
                "repository_permit": true,
                "notes": "منهم 1 بدل تالف",
                "owner": 1000016
            },
            {
                "id": 10000069,
                "s_invoice_items": [
                    {
                        "id": 79,
                        "item_name": "DCD Can v1",
                        "repository_name": "الرئيسي",
                        "description": "",
                        "quantity": "7.00",
                        "unit_price": "500.00",
                        "discount": "0.00",
                        "tax_rate": "0.00",
                        "total": "3500.00",
                        "item": 1000151,
                        "repository": 10000
                    },
                    {
                        "id": 80,
                        "item_name": "DCD Can v2",
                        "repository_name": "الرئيسي",
                        "description": "",
                        "quantity": "8.00",
                        "unit_price": "500.00",
                        "discount": "0.00",
                        "tax_rate": "0.00",
                        "total": "4000.00",
                        "item": 1000152,
                        "repository": 10000
                    }
                ],
                "by_username": "استنفار",
                "owner_name": "NBD",
                "hashed_id": "d9c9bfdb",
                "created_at": "2025-04-29T09:00:25.883737Z",
                "updated_at": "2025-04-30T10:46:43.863183Z",
                "issue_date": "2025-04-29",
                "due_date": "2025-05-13",
                "total_amount": "7500.00",
                "remaining_balance": "0.00",
                "status": 3,
                "repository_permit": true,
                "notes": "",
                "owner": 1000007
            },
            {
                "id": 10000068,
                "s_invoice_items": [
                    {
                        "id": 78,
                        "item_name": "PRO SERIES ACC HP W/O FIBER",
                        "repository_name": "الرئيسي",
                        "description": "",
                        "quantity": "1.00",
                        "unit_price": "0.00",
                        "discount": "0.00",
                        "tax_rate": "0.00",
                        "total": "0.00",
                        "item": 1000101,
                        "repository": 10000
                    }
                ],
                "by_username": "استنفار",
                "owner_name": "صيانه داخليه",
                "hashed_id": "9ad4e648",
                "created_at": "2025-04-28T18:39:09.590772Z",
                "updated_at": "2025-04-28T18:39:10.718607Z",
                "issue_date": "2025-04-28",
                "due_date": "2025-05-12",
                "total_amount": "0.00",
                "remaining_balance": "0.00",
                "status": 3,
                "repository_permit": true,
                "notes": "صلاح: مصطفي بعتليى عىل الوتس انه اخده",
                "owner": 1000001
            }
        ]
    }
}