{
    "timestamp": "استنفار_2025-05-25_08-24-34_716992",
    "url": "http://localhost:8000/api/items/?fields=id%2Cname%2Cprice1%2Cprice2%2Cprice3%2Cprice4%2Chas_img%2Cimages%2Cstock%2C&limit=12&offset=12&s=+%40%40",
    "headers": {
        "Content-Length": "",
        "Content-Type": "text/plain",
        "Host": "localhost:8000",
        "Connection": "keep-alive",
        "Sec-Ch-Ua-Platform": "\"Linux\"",
        "User-Agent": "Mozilla/5.0 (X11; Linux x86_64) AppleWebKit/537.36 (KHTML, like Gecko) Chrome/136.0.0.0 Safari/537.36",
        "Accept": "application/json, text/plain, */*",
        "Sec-Ch-Ua": "\"Chromium\";v=\"136\", \"Google Chrome\";v=\"136\", \"Not.A/Brand\";v=\"99\"",
        "Sec-Ch-Ua-Mobile": "?0",
        "Origin": "http://localhost:5173",
        "Sec-Fetch-Site": "same-site",
        "Sec-Fetch-Mode": "cors",
        "Sec-Fetch-Dest": "empty",
        "Referer": "http://localhost:5173/",
        "Accept-Encoding": "gzip, deflate, br, zstd",
        "Accept-Language": "en-US,en;q=0.9,ar-EG;q=0.8,ar;q=0.7"
    },
    "request_body": null,
    "response_status": 200,
    "response_body": {
        "count": 121,
        "next": "http://localhost:8000/api/items/?fields=id%2Cname%2Cprice1%2Cprice2%2Cprice3%2Cprice4%2Chas_img%2Cimages%2Cstock%2C&limit=12&offset=24&s=+%40%40",
        "previous": "http://localhost:8000/api/items/?fields=id%2Cname%2Cprice1%2Cprice2%2Cprice3%2Cprice4%2Chas_img%2Cimages%2Cstock%2C&limit=12&s=+%40%40",
        "results": [
            {
                "id": 1000015,
                "images": [],
                "stock": [
                    {
                        "id": 16,
                        "repository_name": "الرئيسي",
                        "quantity": "5.00",
                        "item": 1000015,
                        "repository": 10000
                    }
                ],
                "name": "DCD filter inside machine ##IR @@15",
                "price1": "0.00",
                "price2": "0.00",
                "price3": "0.00",
                "price4": "0.00"
            },
            {
                "id": 1000146,
                "images": [],
                "stock": [
                    {
                        "id": 147,
                        "repository_name": "الرئيسي",
                        "quantity": "1.00",
                        "item": 1000146,
                        "repository": 10000
                    }
                ],
                "name": "DCD pressure sensor MGL ##USA @@14",
                "price1": "0.00",
                "price2": "0.00",
                "price3": "0.00",
                "price4": "0.00"
            },
            {
                "id": 1000017,
                "images": [],
                "stock": [
                    {
                        "id": 18,
                        "repository_name": "الرئيسي",
                        "quantity": "4.00",
                        "item": 1000017,
                        "repository": 10000
                    }
                ],
                "name": "DCD VALVE Parkar ##USA @@11",
                "price1": "0.00",
                "price2": "0.00",
                "price3": "0.00",
                "price4": "0.00"
            },
            {
                "id": 1000019,
                "images": [],
                "stock": [
                    {
                        "id": 20,
                        "repository_name": "الرئيسي",
                        "quantity": "3.00",
                        "item": 1000019,
                        "repository": 10000
                    }
                ],
                "name": "DI Filter PRO ##USA, Turkiye @@20",
                "price1": "0.00",
                "price2": "0.00",
                "price3": "0.00",
                "price4": "0.00"
            },
            {
                "id": 1000141,
                "images": [],
                "stock": [
                    {
                        "id": 142,
                        "repository_name": "الرئيسي",
                        "quantity": "1.00",
                        "item": 1000141,
                        "repository": 10000
                    }
                ],
                "name": "DI pressure switch MGL ## @@11",
                "price1": "0.00",
                "price2": "0.00",
                "price3": "0.00",
                "price4": "0.00"
            },
            {
                "id": 1000020,
                "images": [],
                "stock": [
                    {
                        "id": 21,
                        "repository_name": "الرئيسي",
                        "quantity": "4.00",
                        "item": 1000020,
                        "repository": 10000
                    }
                ],
                "name": "DISPLAY screen PRO ##USA @@فوق الصف 2",
                "price1": "0.00",
                "price2": "0.00",
                "price3": "0.00",
                "price4": "0.00"
            },
            {
                "id": 1000021,
                "images": [],
                "stock": [
                    {
                        "id": 22,
                        "repository_name": "الرئيسي",
                        "quantity": "8.00",
                        "item": 1000021,
                        "repository": 10000
                    }
                ],
                "name": "Distance gauge 12 mm MGL ##USA, China, IR @@8",
                "price1": "0.00",
                "price2": "0.00",
                "price3": "0.00",
                "price4": "0.00"
            },
            {
                "id": 1000140,
                "images": [],
                "stock": [
                    {
                        "id": 141,
                        "repository_name": "الرئيسي",
                        "quantity": "1.00",
                        "item": 1000140,
                        "repository": 10000
                    }
                ],
                "name": "Distance gauge 12 mm PRO ##USA, China, IR @@8",
                "price1": "0.00",
                "price2": "0.00",
                "price3": "0.00",
                "price4": "0.00"
            },
            {
                "id": 1000023,
                "images": [],
                "stock": [
                    {
                        "id": 24,
                        "repository_name": "الرئيسي",
                        "quantity": "3.00",
                        "item": 1000023,
                        "repository": 10000
                    }
                ],
                "name": "Distance gauge 15 mm PRO ##USA, China, IR @@8",
                "price1": "0.00",
                "price2": "0.00",
                "price3": "0.00",
                "price4": "0.00"
            },
            {
                "id": 1000025,
                "images": [],
                "stock": [
                    {
                        "id": 26,
                        "repository_name": "الرئيسي",
                        "quantity": "2.00",
                        "item": 1000025,
                        "repository": 10000
                    }
                ],
                "name": "Distance gauge 18 mm PRO ##USA, China, IR @@8 1",
                "price1": "0.00",
                "price2": "0.00",
                "price3": "0.00",
                "price4": "500.00"
            },
            {
                "id": 1000026,
                "images": [],
                "stock": [
                    {
                        "id": 27,
                        "repository_name": "الرئيسي",
                        "quantity": "9.00",
                        "item": 1000026,
                        "repository": 10000
                    }
                ],
                "name": "Distance gauge 20 mm PRO ##USA, China, IR @@8",
                "price1": "0.00",
                "price2": "0.00",
                "price3": "0.00",
                "price4": "0.00"
            },
            {
                "id": 1000027,
                "images": [],
                "stock": [
                    {
                        "id": 28,
                        "repository_name": "الرئيسي",
                        "quantity": "3.00",
                        "item": 1000027,
                        "repository": 10000
                    }
                ],
                "name": "distance gauge 22 mm pro ##USA, China, IR @@8",
                "price1": "0.00",
                "price2": "0.00",
                "price3": "0.00",
                "price4": "0.00"
            }
        ]
    }
}